^C:\USERS\1\SOURCE\REPOS\MAPZ_LAB8_PROXY\DEBUG\MAPZ_LAB8_PROXY.OBJ
C:\USERS\1\SOURCE\REPOS\MAPZ_LAB8_PROXY\DEBUG\MAPZ_LAB8_PROXY.EXE
C:\USERS\1\SOURCE\REPOS\MAPZ_LAB8_PROXY\DEBUG\MAPZ_LAB8_PROXY.ILK
C:\USERS\1\SOURCE\REPOS\MAPZ_LAB8_PROXY\DEBUG\MAPZ_LAB8_PROXY.PDB
