^E:\GIT_PROJECTS\MAPZ\LAB2\MAPZ_LAB6_ABSTRACTFACTORY\MAPZ_LAB6_ABSTRACTFACTORY.CPP
E:\GIT_PROJECTS\MAPZ\LAB2\MAPZ_LAB6_ABSTRACTFACTORY\DEBUG\VC142.PDB
E:\GIT_PROJECTS\MAPZ\LAB2\MAPZ_LAB6_ABSTRACTFACTORY\DEBUG\VC142.IDB
E:\GIT_PROJECTS\MAPZ\LAB2\MAPZ_LAB6_ABSTRACTFACTORY\DEBUG\MAPZ_LAB6_ABSTRACTFACTORY.OBJ
