^E:\GIT_PROJECTS\MAPZ\LAB2\MAPZ_LAB6_ABSTRACTFACTORY\DEBUG\MAPZ_LAB6_ABSTRACTFACTORY.OBJ
E:\WINDOWS KITS\10\LIB\10.0.18362.0\UM\X86\KERNEL32.LIB
E:\WINDOWS KITS\10\LIB\10.0.18362.0\UM\X86\USER32.LIB
E:\WINDOWS KITS\10\LIB\10.0.18362.0\UM\X86\GDI32.LIB
E:\WINDOWS KITS\10\LIB\10.0.18362.0\UM\X86\WINSPOOL.LIB
E:\WINDOWS KITS\10\LIB\10.0.18362.0\UM\X86\COMDLG32.LIB
E:\WINDOWS KITS\10\LIB\10.0.18362.0\UM\X86\ADVAPI32.LIB
E:\WINDOWS KITS\10\LIB\10.0.18362.0\UM\X86\SHELL32.LIB
E:\WINDOWS KITS\10\LIB\10.0.18362.0\UM\X86\OLE32.LIB
E:\WINDOWS KITS\10\LIB\10.0.18362.0\UM\X86\OLEAUT32.LIB
E:\WINDOWS KITS\10\LIB\10.0.18362.0\UM\X86\UUID.LIB
E:\WINDOWS KITS\10\LIB\10.0.18362.0\UM\X86\ODBC32.LIB
E:\WINDOWS KITS\10\LIB\10.0.18362.0\UM\X86\ODBCCP32.LIB
E:\GIT_PROJECTS\MAPZ\LAB2\MAPZ_LAB6_ABSTRACTFACTORY\DEBUG\MAPZ_LAB6_ABSTRACTFACTORY.OBJ
C:\WINDOWS\SYSTEM32\TZRES.DLL
C:\WINDOWS\GLOBALIZATION\SORTING\SORTDEFAULT.NLS
C:\PROGRAM FILES (X86)\MICROSOFT VISUAL STUDIO\2019\COMMUNITY\VC\TOOLS\MSVC\14.23.28105\LIB\X86\MSVCPRTD.LIB
C:\PROGRAM FILES (X86)\MICROSOFT VISUAL STUDIO\2019\COMMUNITY\VC\TOOLS\MSVC\14.23.28105\LIB\X86\MSVCRTD.LIB
C:\PROGRAM FILES (X86)\MICROSOFT VISUAL STUDIO\2019\COMMUNITY\VC\TOOLS\MSVC\14.23.28105\LIB\X86\OLDNAMES.LIB
C:\PROGRAM FILES (X86)\MICROSOFT VISUAL STUDIO\2019\COMMUNITY\VC\TOOLS\MSVC\14.23.28105\LIB\X86\VCRUNTIMED.LIB
E:\WINDOWS KITS\10\LIB\10.0.18362.0\UCRT\X86\UCRTD.LIB
