^C:\USERS\1\SOURCE\REPOS\MAPZ_LAB_9_2_OBSERVER\MAPZ_LAB_9_2_OBSERVER.CPP
C:\USERS\1\SOURCE\REPOS\MAPZ_LAB_9_2_OBSERVER\DEBUG\VC142.PDB
C:\USERS\1\SOURCE\REPOS\MAPZ_LAB_9_2_OBSERVER\DEBUG\VC142.IDB
C:\USERS\1\SOURCE\REPOS\MAPZ_LAB_9_2_OBSERVER\DEBUG\MAPZ_LAB_9_2_OBSERVER.OBJ
^E:\GIT_PROJECTS\MAPZ\LAB5\MAPZ_LAB_9_2_OBSERVER\MAPZ_LAB_9_2_OBSERVER.CPP
E:\GIT_PROJECTS\MAPZ\LAB5\MAPZ_LAB_9_2_OBSERVER\DEBUG\VC142.PDB
E:\GIT_PROJECTS\MAPZ\LAB5\MAPZ_LAB_9_2_OBSERVER\DEBUG\VC142.IDB
E:\GIT_PROJECTS\MAPZ\LAB5\MAPZ_LAB_9_2_OBSERVER\DEBUG\MAPZ_LAB_9_2_OBSERVER.OBJ
