^C:\USERS\1\SOURCE\REPOS\MAPZ_LAB_9_1_STATE\MAPZ_LAB_9_1_STATE.CPP
/c /ZI /JMC /nologo /W3 /WX- /diagnostics:column /sdl /Od /Oy- /D WIN32 /D _DEBUG /D _CONSOLE /D _UNICODE /D UNICODE /Gm- /EHsc /RTC1 /MDd /GS /fp:precise /permissive- /Zc:wchar_t /Zc:forScope /Zc:inline /Fo"DEBUG\\" /Fd"DEBUG\VC142.PDB" /Gd /TP /analyze- /FC C:\USERS\1\SOURCE\REPOS\MAPZ_LAB_9_1_STATE\MAPZ_LAB_9_1_STATE.CPP
^E:\GIT_PROJECTS\MAPZ\LAB4\MAPZ_LAB_9_1_STATE\MAPZ_LAB_9_1_STATE.CPP
/c /ZI /JMC /nologo /W3 /WX- /diagnostics:column /sdl /Od /Oy- /D WIN32 /D _DEBUG /D _CONSOLE /D _UNICODE /D UNICODE /Gm- /EHsc /RTC1 /MDd /GS /fp:precise /permissive- /Zc:wchar_t /Zc:forScope /Zc:inline /Fo"DEBUG\\" /Fd"DEBUG\VC142.PDB" /Gd /TP /analyze- /FC E:\GIT_PROJECTS\MAPZ\LAB4\MAPZ_LAB_9_1_STATE\MAPZ_LAB_9_1_STATE.CPP
